{"status":"ok","total_hits":10000,"page":1,"total_pages":200,"page_size":50,"articles":[{"title":"Why Bitcoin Is Falling: Why Is Bitcoin Down Today?","author":"Rashi Maheshwari","published_date":"2023-01-02 11:14:12","published_date_precision":"timezone unknown","link":"https://www.forbes.com/advisor/in/investing/cryptocurrency/why-bitcoin-is-falling/","clean_url":"forbes.com","excerpt":"The largest cryptocurrency in the world, Bitcoin (BTC) is trading under immense pressure. One Bitcoin is now worth around $17,000, which was almost worth around $69,000 in November 2021. Since then,\u2026","summary":"The largest cryptocurrency in the world, Bitcoin (BTC) is trading under immense pressure. One Bitcoin is now worth around $17,000, which was almost worth around $69,000 in November 2021. Since then, Bitcoin has been on a downward trajectory and now it almost looks impossible that it will ever recover back to the heights that it witnessed long back in 2021. So what should you do if you are currently invested in Bitcoin? Should you run a mile or have high hopes that Bitcoin will bounce back soon to its highest levels soon.","rights":"forbes.com","rank":49,"topic":"news","country":"US","language":"en","authors":"Rashi Maheshwari","media":"https://thumbor.forbes.com/thumbor/fit-in/x/https://www.forbes.com/advisor/in/wp-content/uploads/2022/12/regularguy-eth-vsRw-nLstmw-unsplash.png","is_opinion":false,"twitter_account":"@forbes","_score":10.417705,"_id":"70d04279f77f8b3a2b064bdf82304aed"},{"title":"MicroStrategy Accumulates 2,501 Bitcoin in the Bear Market \u2013 BeInCrypto","author":"Alexander Graham","published_date":"2022-12-28 13:05:21","published_date_precision":"full","link":"https://news.google.com/__i/rss/rd/articles/CBMiW2h0dHBzOi8vYmVpbmNyeXB0by5jb20vbWljcm9zdHJhdGVneS1jb250aW51ZXMtYnV5aW5nLWJpdGNvaW4tZGVzcGl0ZS1zbHVtcC1pbi1zdG9jay1wcmljZS_SAQA?oc=5","clean_url":"google.com","excerpt":"MicroStrategy accumulated 2,501 Bitcoin in the bear market despite the MSTR stock price hitting a 6-month low. The Bitcoin Bull Michael Saylor announced on Twit","summary":"MicroStrategy accumulated 2,501 Bitcoin in the bear market despite the MSTR stock price hitting a 6-month low.\nThe Bitcoin Bull Michael Saylor announced on Twitter that MicroStrategy increased its Bitcoin holdings. The tech company now holds 132,500 Bitcoin acquired for $4.03 billion at an average price of $30,397.MicroStrategy Sold Bitcoin for the First Time\nAccording to a Form 8-K, MicroStrategy added a net of 2501 Bitcoin to its portfolio. The company first accumulated 2,395 Bitcoin from Nov. to Dec.","rights":"stl.news","rank":1,"topic":"news","country":"US","language":"en","authors":"Alexander Graham","media":"https://www.stl.news/wp-content/uploads/2022/12/MicroStrategy-Accumulates-2501-Bitcoin-in-the-Bear-Market-BeInCrypto.png","is_opinion":false,"twitter_account":"@stlnewsonline","_score":10.413582,"_id":"498a817ab5ee9214d71822541e69a866"}